<?xml version="1.0" encoding="UTF-8" standalone="no"?>
<!DOCTYPE svg PUBLIC "-//W3C//DTD SVG 1.1//EN" "http://www.w3.org/Graphics/SVG/1.1/DTD/svg11.dtd">
<svg width="100%" height="100%" viewBox="0 0 1300 1300" version="1.1" xmlns="http://www.w3.org/2000/svg" xmlns:xlink="http://www.w3.org/1999/xlink" xml:space="preserve" xmlns:serif="http://www.serif.com/" style="fill-rule:evenodd;clip-rule:evenodd;stroke-linejoin:round;stroke-miterlimit:1.41421;">
    <g transform="matrix(1,0,0,1,-817.842,-420.902)">
        <g>
            <g>
                <g transform="matrix(0.337493,0,0,0.337493,769.236,368.169)">
                    <path d="M178.176,2081.2C50.414,968.277 881.065,113.695 2068.18,191.2C3109.78,259.205 3933.37,1037.68 3958.18,2081.2C3983.61,3151.46 3175.13,4036.84 2068.18,3971.2C1026.19,3909.42 178.176,3125.02 178.176,2081.2" style="fill:none;stroke:rgb(96,10,9);stroke-width:50.37px;"/>
                </g>
                <g transform="matrix(0.337493,0,0,0.337493,769.236,368.169)">
                    <path d="M178.176,2081.2C44.902,871.706 901.525,-4.343 2068.18,191.2C3097.63,363.748 3958.41,1037.38 3958.18,2081.2C3957.92,3255.68 3134.36,4171.03 2068.18,3971.2C1042.22,3778.91 178.176,3125.02 178.176,2081.2" style="fill:none;stroke:rgb(96,10,9);stroke-width:44.45px;"/>
                </g>
                <g transform="matrix(-0.337083,0.0166334,-0.0166334,-0.337083,2467.56,1985.59)">
                    <path d="M4103.9,2140.47L3443.24,1067.39C2512.95,707.245 1153.66,967.475 984.428,2446.13L1568.82,3620.64" style="fill:rgb(92,92,92);fill-opacity:0.458824;fill-rule:nonzero;"/>
                </g>
                <g transform="matrix(0.790538,0,0,0.790538,57.1775,-110.026)">
                    <path d="M1783.51,866.731C1449.48,876.589 1156.15,1163.57 1156.84,1493.4C1157.6,1855.41 1486.4,2156.1 1783.51,2120.06C2127.09,2078.39 2406.53,1839.48 2410.17,1493.4C2413.87,1142.17 2150.02,838.42 1783.51,866.731" style="fill:rgb(227,227,227);fill-rule:nonzero;stroke:rgb(85,20,21);stroke-width:34.15px;"/>
                </g>
                <g transform="matrix(0.790538,0,0,0.790538,57.1775,-110.026)">
                    <path d="M1783.51,866.731C1428.13,823.995 1138.5,1118.09 1156.84,1493.4C1174.51,1854.98 1484.23,2117.34 1783.51,2120.06C2165.27,2123.54 2428.42,1872.94 2410.17,1493.4C2393.3,1142.56 2150.02,838.42 1783.51,866.731" style="fill:none;stroke:rgb(85,20,21);stroke-width:27.83px;"/>
                </g>
            </g>
        </g>
    </g>
    <g transform="matrix(1.20064,0,0,1.20064,-195.343,-341.869)">
        <path d="M755.181,903.614C748.352,892.233 740.67,884.55 732.134,880.567C723.599,876.584 713.783,874.877 702.686,875.446C691.59,876.015 678.786,878.149 664.275,881.847C649.764,885.546 633.12,889.387 614.341,893.371C601.253,905.89 590.014,920.827 580.625,938.184C571.235,955.54 562.13,972.753 553.31,989.825C544.49,1006.9 535.1,1022.83 525.142,1037.62C515.184,1052.42 502.522,1063.52 487.158,1070.91C478.053,1082.3 467.099,1086.71 454.295,1084.14C441.491,1081.59 433.098,1073.76 429.115,1060.67C421.717,1057.83 416.026,1052.7 412.043,1045.31C408.06,1037.91 407.206,1028.81 409.482,1017.99C447.609,981.574 478.907,941.74 503.376,898.492C527.845,855.244 549.327,810.289 567.821,763.627C586.315,716.965 603.529,669.591 619.462,621.506C635.396,573.422 653.605,526.333 674.091,480.239C674.091,478.532 674.376,476.967 674.945,475.545C675.514,474.122 676.083,472.273 676.652,469.996L677.506,470.85C680.351,467.436 683.765,465.017 687.748,463.595C691.732,462.172 695.288,462.03 698.418,463.168C701.548,464.306 704.251,466.44 706.527,469.57C708.803,472.699 709.657,476.825 709.088,481.947C709.088,482.516 708.803,482.8 708.234,482.8C713.925,487.353 718.762,494.75 722.745,504.993C729.005,551.086 738.821,597.606 752.194,644.553C765.566,691.5 782.069,737.451 801.701,782.406C821.333,827.361 843.811,870.609 869.134,912.149C894.456,953.69 922.198,992.101 952.357,1027.38C962.031,1034.21 967.722,1042.04 969.429,1050.86C971.136,1059.68 969.998,1067.64 966.015,1074.76C962.031,1081.87 955.772,1086.85 947.236,1089.69C938.7,1092.54 929.026,1091.4 918.214,1086.28C907.971,1078.88 897.159,1071.06 885.778,1062.81C874.397,1054.56 862.02,1043.88 848.648,1030.8C835.275,1017.71 820.907,1001.21 805.542,981.289C790.178,961.372 773.391,935.481 755.181,903.614ZM687.748,644.98C682.058,663.758 677.221,681.115 673.238,697.048C669.254,712.981 664.986,728.346 660.434,743.141C655.882,757.936 650.902,772.305 645.496,786.247C640.09,800.189 633.404,813.988 625.437,827.645C638.526,826.507 653.463,824.942 670.25,822.951C687.037,820.959 703.397,816.833 719.331,810.574C713.64,798.624 709.372,786.389 706.527,773.87C703.682,761.351 701.406,748.263 699.699,734.605C697.991,720.948 696.426,706.722 695.004,691.927C693.581,677.131 691.163,661.482 687.748,644.98Z" style="fill:rgb(69,15,16);fill-rule:nonzero;"/>
    </g>
</svg>
